Chapter 3 Chart types | Graphic Design with ggplot2
…
Now we put the resulting matrix in long format using the pivot_longer() function from the tidyr package:

corm <- corm %>%
  pivot_longer(
    cols = -term,
    names_to = "colname",
    values_to = "corr"
  ) %>%
  mutate(rowname = fct_inorder(term),
         colname = fct_inorder(colname))

## # A tibble: 25 x 4
##    term  colname      corr rowname
##    <chr> <fct>       <dbl> <fct>  
##  1 death death     1       death  
##  2 death temp     -0.486   death  
##  3 death dewpoint -0.465   death  
##  4 death pm10     -0.00294 death  
##  5 death o3       -0.238   death  
##  6 temp  death    NA       temp   
##  7 temp  temp      1       temp   
##  8 temp  dewpoint  0.958   temp   
##  9 temp  pm10      0.368   temp   
## 10 temp  o3        0.535   temp   
## # ... with 15 more rows
…
