Chapter 2 Get Started | Graphic Design with ggplot2
…
The :: is called “namespace” and can be used to access a function without loading the package. Here, you could also run library(readr) first and bikes <- read_csv(url_data) afterwards.

If you want to load data that is stored locally, you specify the path to the file instead.

path_data <- "C://path/to/my/data/london-bikes.csv" ## mocked-up name for Win users
bikes <- readr::read_csv(file = path_data, col_types = "Dcfffilllddddfc")

2.2.2 Inspect data

After importing the data, it is advisable to have a look at the data. Does the object stored in R match the dimensions of your original data file? Are the variables displayed correctly? You can print the data by simply running the name of the object, here bikes.

bikes

## # A tibble: 1,454 x 14
##    date       day_night year  month season count
##    <date>     <chr>     <fct> <fct> <fct>  <int>
##  1 2015-01-04 day       2015  1     3       6830
##  2 2015-01-04 night     2015  1     3       2404
##  3 2015-01-05 day       2015  1     3      14763
##  4 2015-01-05 night     2015  1     3       5609
##  5 2015-01-06 day       2015  1     3      14501
##  6 2015-01-06 night     2015  1     3       6112
##  7 2015-01-07 day       2015  1     3      16358
##  8 2015-01-07 night     2015  1     3       4706
##  9 2015-01-08 day       2015  1     3       9971
## 10 2015-01-08 night     2015  1     3       5630
## # ... with 1,444 more rows, and 8 more variables:
## #   is_workday <lgl>, is_weekend <lgl>,
## #   is_holiday <lgl>, temp <dbl>, temp_feel <dbl>,
## #   humidity <dbl>, wind_speed <dbl>,
## #   weather_type <fct>
…
